<?xml version="1.0" encoding="UTF-8" standalone="no"?>
<svg width="31px" height="28px" viewBox="0 0 31 28" version="1.1" xmlns="http://www.w3.org/2000/svg" xmlns:xlink="http://www.w3.org/1999/xlink">
    <!-- Generator: sketchtool 40.3 (33839) - http://www.bohemiancoding.com/sketch -->
    <title>8CB72A6B-44DB-4F2C-BDB2-E24506348E52</title>
    <desc>Created with sketchtool.</desc>
    <defs></defs>
    <g id="Стилевая" stroke="none" stroke-width="1" fill="none" fill-rule="evenodd">
        <g transform="translate(-1173.000000, -1458.000000)" id="Customers-ic-active">
            <g transform="translate(1173.000000, 1458.000000)">
                <path d="M1.84652393,27.1891168 C0.826716923,27.4266677 0,26.7820164 0,25.7479573 L0,7.09052432 C0,6.05704299 0.827539314,5.02647616 1.84652393,4.78911675 L22.1942924,0.0493649124 C23.2140994,-0.188186058 24.0408163,0.45446386 24.0408163,1.48576011 L24.0408163,5.81229639 L1.84652393,27.1891168 Z" id="Rectangle-6" fill="#345070"></path>
                <path d="M29.1020408,20.1048745 L29.1020408,25.7521021 C29.1020408,26.7832944 28.2468327,27.6192408 27.2038006,27.6192408 L1.89824018,27.6192408 C0.849871077,27.6192408 0,26.7820164 0,25.7479573 L0,7.09052432 C0,6.05704299 0.855208095,5.21924083 1.89824018,5.21924083 L27.2038006,5.21924083 C28.2521697,5.21924083 29.1020408,6.05686274 29.1020408,7.08399527 L29.1020408,13.2692408 L29.1020408,20.1048745 Z" id="Rectangle-6" fill="#345070"></path>
                <rect id="Rectangle-7" fill="#345070" x="18.3469388" y="12.6859075" width="12.6530612" height="7.46666667" rx="1.86666667"></rect>
                <path d="M29.1020408,7.08399527 C29.1020408,6.05686274 28.2521697,5.21924083 27.2038006,5.21924083 L1.89824018,5.21924083 C0.855208095,5.21924083 0,6.05704299 0,7.09052432 L0,25.7479573 C0,26.7820164 0.849871077,27.6192408 1.89824018,27.6192408 L27.2038006,27.6192408 C28.2468327,27.6192408 29.1020408,26.7832944 29.1020408,25.7521021 L29.1020408,20.1048745 L27.6020408,20.1048745 L27.6020408,25.7521021 C27.6020408,25.9467965 27.4263835,26.1192408 27.2038006,26.1192408 L1.89824018,26.1192408 C1.673261,26.1192408 1.5,25.9484767 1.5,25.7479573 L1.5,7.09052432 C1.5,6.89278627 1.67638733,6.71924083 1.89824018,6.71924083 L27.2038006,6.71924083 C27.4283617,6.71924083 27.6020408,6.89002955 27.6020408,7.08399527 L27.6020408,13.2692408 L29.1020408,13.2692408 L29.1020408,7.08399527 Z" id="Rectangle-6" fill="#3A96FF"></path>
                <path d="M22.5408163,5.81229639 L22.5408163,1.48576011 C22.5408163,1.42788551 2.18681948,6.25000653 2.18681948,6.25000653 C1.84350051,6.32997828 1.5,6.75799168 1.5,7.09052432 L1.5,25.7479573 C1.5,25.8097241 1.84652393,27.1891168 1.84652393,27.1891168 C0.826716923,27.4266677 0,26.7820164 0,25.7479573 L0,7.09052432 C0,6.05704299 0.827539314,5.02647616 1.84652393,4.78911675 L22.1942924,0.0493649124 C23.2140994,-0.188186058 24.0408163,0.45446386 24.0408163,1.48576011 L24.0408163,5.81229639 L22.5408163,5.81229639 Z" id="Rectangle-6" fill="#3A96FF"></path>
                <path d="M20.2139415,12.6859075 L29.1329972,12.6859075 C30.1641144,12.6859075 31,13.5135001 31,14.5508021 L31,18.2876796 C31,19.3176324 30.1697973,20.1525742 29.1329972,20.1525742 L20.2139415,20.1525742 C19.1828244,20.1525742 18.3469388,19.3249816 18.3469388,18.2876796 L18.3469388,14.5508021 C18.3469388,13.5208492 19.1771415,12.6859075 20.2139415,12.6859075 Z M19.8469388,18.2876796 C19.8469388,18.4927188 20.0074116,18.6525742 20.2139415,18.6525742 L29.1329972,18.6525742 C29.3390799,18.6525742 29.5,18.4914971 29.5,18.2876796 L29.5,14.5508021 C29.5,14.3457628 29.3395272,14.1859075 29.1329972,14.1859075 L20.2139415,14.1859075 C20.0078589,14.1859075 19.8469388,14.3469845 19.8469388,14.5508021 L19.8469388,18.2876796 Z" id="Rectangle-7" fill="#3A96FF"></path>
                <ellipse id="Oval-3" fill="#3A96FF" cx="23.4081633" cy="16.4192408" rx="1.29117044" ry="1.26988232"></ellipse>
            </g>
        </g>
    </g>
</svg>